%YAML 1.1
%TAG !u! tag:unity3d.com,2011:
--- !u!78 &1
TagManager:
  serializedVersion: 2
  tags: []
  layers:
  - Default
  - TransparentFX
  - Ignore Raycast
  - 
  - Water
  - UI
  - 
  - 
  - Field
  - 
  - 
  - 
  - 
  - 
  - 
  - 
  - 
  - 
  - 
  - 
  - 
  - 
  - 
  - 
  - 
  - 
  - 
  - 
  - 
  - 
  - 
  - 
  m_SortingLayers:
  - name: Background
    uniqueID: 2514143331
    locked: 0
  - name: Floors
    uniqueID: 2332289117
    locked: 0
  - name: Default
    uniqueID: 0
    locked: 0
  - name: Walls
    uniqueID: 3711151259
    locked: 0
  - name: DamagePopup
    uniqueID: 3433120997
    locked: 0
