%YAML 1.1
%TAG !u! tag:unity3d.com,2011:
--- !u!114 &11400000
MonoBehaviour:
  m_ObjectHideFlags: 0
  m_CorrespondingSourceObject: {fileID: 0}
  m_PrefabInstance: {fileID: 0}
  m_PrefabAsset: {fileID: 0}
  m_GameObject: {fileID: 0}
  m_Enabled: 1
  m_EditorHideFlags: 0
  m_Script: {fileID: 11500000, guid: f4784247b37b26347ad1274fbe1d6fb9, type: 3}
  m_Name: Damage_6
  m_EditorClassIdentifier: 
  cost: 1
  targetingType: 0
  abilityColour: {r: 1, g: 1, b: 1, a: 1}
  DamageAmount: 6
  targetDistance: 1
  target: {fileID: 0}
